getting-started • gimap
…
example_data <- example_data()
#> Rows: 33170 Columns: 8
#> ── Column specification ────────────────────────────────────────────────────────
#> Delimiter: "\t"
#> chr (3): id, seq_1, seq_2
#> dbl (5): Day00_RepA, Day05_RepA, Day22_RepA, Day22_RepB, Day22_RepC
#> 
#> ℹ Use `spec()` to retrieve the full column specification for this data.
#> ℹ Specify the column types or set `show_col_types = FALSE` to quiet this message.

# Let's examine this example metadata
example_data
#> # A tibble: 33,170 × 8
#>    id         seq_1 seq_2 Day00_RepA Day05_RepA Day22_RepA Day22_RepB Day22_RepC
#>    <chr>      <chr> <chr>      <dbl>      <dbl>      <dbl>      <dbl>      <dbl>
#>  1 AADAC_AAD… AAGT… AAAG…        951       1315       1481       1715       2084
#>  2 AADAC_AAD… ATTT… GAAA…       1511       1201       1276       2339       1416
#>  3 AADAC_AAD… ATTT… GTGA…        191        171        148          6         91
#>  4 AADAC_AAD… ATTT… TGGG…        588        689        931        852        779
#>  5 AADAC_AAD… GGTA… AAAG…        289        236        411        545        888
#>  6 AADAC_AAD… GGTA… GAAA…        971        711        674       1071        742
#>  7 AADAC_AAD… GGTA… GTGA…        228        245        100        222        118
#>  8 AADAC_AAD… GGTA… TGGG…        461        263        630        835        486
#>  9 AADAC_AAD… AAGT… GAAA…       1207       1535       1160       1874       2439
#> 10 AADAC_AAD… AAGT… GTGA…        486        341        383        254        132
#> # ℹ 33,160 more rows
…
