getting_started • gimap
…
Lastly, let’s take a look at the by target results. We can arrange by
results using dplyr::arrange()

gimap_dataset$results$by_target %>% 
  dplyr::arrange(fdr_vals_wil_late_RepA)
#> # A tibble: 1,030 × 13
#>    targets     p_val_ttest_late_RepA p_val_ttest_late_RepB p_val_ttest_late_RepC
#>    <chr>                       <dbl>                 <dbl>                 <dbl>
#>  1 CNOT8_CNOT7              3.72e- 6            0.0000192             0.00000276
#>  2 PFN2_PFN1                3.12e- 8            0.0634                0.00498   
#>  3 CDKN2B_CDK…              1.05e- 6            0.00000181            0.00000262
#>  4 TIAL1_TIA1               1.37e- 5            0.000752              0.000187  
#>  5 IMPDH2_IMP…              2.72e- 5            0.0276                0.0314    
#>  6 NDEL1_NDE1               6.85e-11            0.000368              0.000151  
#>  7 MX2_MX1                  1.98e- 5            0.0000219             0.0551    
#>  8 ZNF146_ZNF…              8.39e- 5            0.00101               0.0000687 
#>  9 COQ10B_COQ…              3.48e- 5            0.0212                0.00171   
#> 10 FAM24B_FAM…              5.52e- 4            0.00679               0.0199    
#> # ℹ 1,020 more rows
#> # ℹ 9 more variables: p_val_wil_late_RepA <dbl>, p_val_wil_late_RepB <dbl>,
#> #   p_val_wil_late_RepC <dbl>, fdr_vals_ttest_late_RepA <dbl>,
#> #   fdr_vals_ttest_late_RepB <dbl>, fdr_vals_ttest_late_RepC <dbl>,
#> #   fdr_vals_wil_late_RepA <dbl>, fdr_vals_wil_late_RepB <dbl>,
#> #   fdr_vals_wil_late_RepC <dbl>
…
